{
  "rabbit_version": "3.8.9",
  "users": [
    {
      "name": "rabbit",
      "password": "rabbit",
      "tags": "administrator"
    }
  ],
  "vhosts": [
    {
      "name": "/"
    }
  ],
  "permissions": [
    {
      "user": "rabbit",
      "vhost": "/",
      "configure": ".*",
      "write": ".*",
      "read": ".*"
    }
  ],
  "topic_permissions": [],
  "parameters": [],
  "global_parameters": [
    {
      "name": "cluster_name",
      "value": "rabbit@my-rabbit"
    }
  ],
  "policies": [],
  "queues": [
    {
      "name": "queue.example1.config-file",
      "vhost": "/",
      "durable": false,
      "auto_delete": false,
      "arguments": {}
    },
    {
      "name": "queue.example2",
      "vhost": "/",
      "durable": false,
      "auto_delete": false,
      "arguments": {}
    }
  ],
  "exchanges": [
    {
      "name":"exchange.example1.config-file.chapter2-example",
      "vhost":"/",
      "type":"direct",
      "durable":false,
      "auto_delete":false,
      "internal":false,
      "arguments":{}
    },
    {
      "name":"exchange.example2.chapter3-example",
      "vhost":"/",
      "type":"direct",
      "durable":false,
      "auto_delete":false,
      "internal":false,
      "arguments":{}
    }
  ],
  "bindings": [
    {
      "source": "exchange.example1.config-file.chapter2-example",
      "vhost": "/",
      "destination": "queue.example1.config-file",
      "destination_type": "queue",
      "routing_key": "example1.config-file.routing-key",
      "arguments": {}
    },
    {
      "source": "exchange.example2.chapter3-example",
      "vhost": "/",
      "destination": "queue.example2",
      "destination_type": "queue",
      "routing_key": "example2.config-file.routing-key",
      "arguments": {}
    }
  ]
}
